DDC264/tb.vcd
$date
  Wed Oct 22 08:44:53 2025
$end
$version
  GHDL v0
$end
$timescale
  1 fs
$end
$scope module standard $end
$upscope $end
$scope module textio $end
$upscope $end
$scope module std_logic_1164 $end
$upscope $end
$scope module numeric_std $end
$upscope $end
$scope module env $end
$upscope $end
$scope module math_real $end
$upscope $end
$scope module testbench $end
$var reg 1 ! rst_i $end
$var reg 1 " clk_i $end
$var reg 1 # stb_i $end
$var reg 1 $ we_i $end
$var reg 16 % adr_i[15:0] $end
$var reg 16 & dat_i[15:0] $end
$var reg 16 ' dat_o[15:0] $end
$var reg 1 ( ddc_clk $end
$var reg 1 ) ddc_conv $end
$var reg 1 * ddc_din_cfg $end
$var reg 1 + ddc_clk_cfg $end
$var reg 1 , ddc_reset $end
$scope module ddc264_control $end
$var reg 1 - rst_i $end
$var reg 1 . clk_i $end
$var reg 1 / stb_i $end
$var reg 1 0 we_i $end
$comment adr_i is not handled $end
$comment dat_i is not handled $end
$comment dat_o is not handled $end
$var reg 1 1 ddc_clk $end
$var reg 1 2 ddc_conv $end
$var reg 1 3 ddc_din_cfg $end
$var reg 1 4 ddc_clk_cfg $end
$var reg 1 5 ddc_reset $end
$var reg 16 6 config_word_reg[15:0] $end
$var reg 1 7 s_ddc_clk_o $end
$var reg 1 8 s_ddc_conv_o $end
$var reg 1 9 s_ddc_clk_cfg_o $end
$var reg 1 : s_ddc_reset_o $end
$var reg 4 ; s_ddc_reg_sel[3:0] $end
$comment current_state is not handled $end
$var integer 32 < cfg_counter $end
$var integer 32 = bit_counter $end
$var reg 16 > s_ddc_din_cfg_reg[15:0] $end
$var reg 1 ? start_config_cmd $end
$var reg 1 @ clk_cfg_prev $end
$scope module gen_clk_direct $end
$upscope $end
$upscope $end
$upscope $end
$enddefinitions $end
#0
1!
0"
0#
0$
b0000000000000000 %
bUUUUUUUUUUUUUUUU &
b0000000000000000 '
0(
0)
0*
0+
0,
1-
0.
0/
00
01
02
03
04
05
b0000000000000000 6
07
08
09
0:
b0000 ;
b0 <
b0 =
b0000000000000000 >
0?
0@
#12500000
1"
1(
1.
11
17
#25000000
0"
0(
0.
01
07
#37500000
1"
1(
1.
11
17
#50000000
0!
0"
0(
1,
0-
0.
01
15
07
1:
#62500000
1"
1#
1(
1.
1/
11
17
b1 <
#75000000
0"
0(
0.
01
07
#87500000
1"
1(
1.
11
17
b10 <
#100000000
0"
0(
0.
01
07
#112500000
1"
1(
1.
11
17
b11 <
#125000000
0"
0(
0.
01
07
#137500000
1"
1(
1.
11
17
b100 <
#150000000
0"
0(
0.
01
07
#162500000
1"
1(
1.
11
17
b101 <
#175000000
0"
0(
0.
01
07
#187500000
1"
1(
1.
11
17
b110 <
#200000000
0"
0(
0.
01
07
#212500000
1"
1(
1.
11
17
b111 <
#225000000
0"
0(
0.
01
07
#237500000
1"
1(
1.
11
17
b1000 <
#250000000
0"
0(
0.
01
07
#262500000
1"
1(
1.
11
17
b1001 <
#275000000
0"
0(
0.
01
07
#287500000
1"
1(
1.
11
17
b1010 <
#300000000
0"
0(
0.
01
07
#312500000
1"
1(
1.
11
17
b1011 <
#325000000
0"
0(
0.
01
07
#337500000
1"
1(
1.
11
17
b1100 <
#350000000
0"
0(
0.
01
07
#362500000
1"
1(
1.
11
17
b1101 <
#375000000
0"
0(
0.
01
07
#387500000
1"
1(
1.
11
17
b1110 <
#400000000
0"
0(
0.
01
07
#412500000
1"
1(
1.
11
17
b1111 <
#425000000
0"
0(
0.
01
07
#437500000
1"
1(
1.
11
17
b10000 <
#450000000
0"
0(
0.
01
07
#462500000
1"
1(
1.
11
17
b10001 <
#475000000
0"
0(
0.
01
07
#487500000
1"
1(
1.
11
17
b10010 <
#500000000
0"
0(
0.
01
07
#512500000
1"
1(
1.
11
17
b10011 <
#525000000
0"
0(
0.
01
07
#537500000
1"
1(
1.
11
17
b10100 <
#550000000
0"
0(
0.
01
07
#562500000
1"
1(
1.
11
17
b10101 <
#575000000
0"
0(
0.
01
07
#587500000
1"
1(
1.
11
17
b10110 <
#600000000
0"
0(
0.
01
07
#612500000
1"
1(
1.
11
17
b10111 <
#625000000
0"
0(
0.
01
07
#637500000
1"
1(
1.
11
17
b11000 <
#650000000
0"
0(
0.
01
07
#662500000
1"
1(
1.
11
17
b11001 <
#675000000
0"
0(
0.
01
07
#687500000
1"
1(
1.
11
17
b11010 <
#700000000
0"
0(
0.
01
07
#712500000
1"
1(
1.
11
17
b11011 <
#725000000
0"
0(
0.
01
07
#737500000
1"
1(
1.
11
17
b11100 <
#750000000
0"
0(
0.
01
07
#762500000
1"
1(
1.
11
17
b11101 <
#775000000
0"
0(
0.
01
07
#787500000
1"
1(
1.
11
17
b11110 <
#800000000
0"
0(
0.
01
07
#812500000
1"
1(
1.
11
17
b11111 <
#825000000
0"
0(
0.
01
07
#837500000
1"
1(
1.
11
17
b100000 <
#850000000
0"
0(
0.
01
07
#862500000
1"
1(
1.
11
17
b100001 <
#875000000
0"
0(
0.
01
07
#887500000
1"
1(
1.
11
17
b100010 <
#900000000
0"
0(
0.
01
07
#912500000
1"
1(
1.
11
17
b100011 <
#925000000
0"
0(
0.
01
07
#937500000
1"
1(
1.
11
17
b100100 <
#950000000
0"
0(
0.
01
07
#962500000
1"
1(
1.
11
17
b100101 <
#975000000
0"
0(
0.
01
07
#987500000
1"
1(
1.
11
17
b100110 <
#1000000000
0"
0(
0.
01
07
#1012500000
1"
1(
1.
11
17
b100111 <
#1025000000
0"
0(
0.
01
07
#1037500000
1"
1(
1.
11
17
b101000 <
#1050000000
0"
0(
0.
01
07
#1062500000
1"
1(
1.
11
17
b101001 <
#1075000000
0"
0(
0.
01
07
#1087500000
1"
1(
1.
11
17
b101010 <
#1100000000
0"
0(
0.
01
07
#1112500000
1"
1(
1.
11
17
b101011 <
#1125000000
0"
0(
0.
01
07
#1137500000
1"
1(
1.
11
17
b101100 <
#1150000000
0"
0(
0.
01
07
#1162500000
1"
1(
1.
11
17
b101101 <
#1175000000
0"
0(
0.
01
07
#1187500000
1"
1(
1.
11
17
b101110 <
#1200000000
0"
0(
0.
01
07
#1212500000
1"
1(
1.
11
17
b101111 <
#1225000000
0"
0(
0.
01
07
#1237500000
1"
1(
1.
11
17
b110000 <
#1250000000
0"
0(
0.
01
07
#1262500000
1"
1(
1.
11
17
b110001 <
#1275000000
0"
0(
0.
01
07
#1287500000
1"
1(
1.
11
17
b110010 <
#1300000000
0"
0(
0.
01
07
#1312500000
1"
1(
1.
11
17
b110011 <
#1325000000
0"
0(
0.
01
07
#1337500000
1"
1(
1.
11
17
b110100 <
#1350000000
0"
0(
0.
01
07
#1362500000
1"
1(
1.
11
17
b110101 <
#1375000000
0"
0(
0.
01
07
#1387500000
1"
1(
1.
11
17
b110110 <
#1400000000
0"
0(
0.
01
07
#1412500000
1"
1(
1.
11
17
b110111 <
#1425000000
0"
0(
0.
01
07
#1437500000
1"
1(
1.
11
17
b111000 <
#1450000000
0"
0(
0.
01
07
#1462500000
1"
1(
1.
11
17
b111001 <
#1475000000
0"
0(
0.
01
07
#1487500000
1"
1(
1.
11
17
b111010 <
#1500000000
0"
0(
0.
01
07
#1512500000
1"
1(
1.
11
17
b111011 <
#1525000000
0"
0(
0.
01
07
#1537500000
1"
1(
1.
11
17
b111100 <
#1550000000
0"
0(
0.
01
07
#1562500000
1"
1(
1.
11
17
b111101 <
#1575000000
0"
0(
0.
01
07
#1587500000
1"
1(
1.
11
17
b111110 <
#1600000000
0"
0(
0.
01
07
#1612500000
1"
1(
1.
11
17
b111111 <
#1625000000
0"
0(
0.
01
07
#1637500000
1"
1(
1.
11
17
b1000000 <
#1650000000
0"
0(
0.
01
07
#1662500000
1"
1(
1.
11
17
b1000001 <
#1675000000
0"
0(
0.
01
07
#1687500000
1"
1(
1.
11
17
b1000010 <
#1700000000
0"
0(
0.
01
07
#1712500000
1"
1(
1.
11
17
b1000011 <
#1725000000
0"
0(
0.
01
07
#1737500000
1"
1(
1.
11
17
b1000100 <
#1750000000
0"
0(
0.
01
07
#1762500000
1"
1(
1.
11
17
b1000101 <
#1775000000
0"
0(
0.
01
07
#1787500000
1"
1(
1.
11
17
b1000110 <
#1800000000
0"
0(
0.
01
07
#1812500000
1"
1(
1.
11
17
b1000111 <
#1825000000
0"
0(
0.
01
07
#1837500000
1"
1(
1.
11
17
b1001000 <
#1850000000
0"
0(
0.
01
07
#1862500000
1"
1(
1.
11
17
b1001001 <
#1875000000
0"
0(
0.
01
07
#1887500000
1"
1(
1.
11
17
b1001010 <
#1900000000
0"
0(
0.
01
07
#1912500000
1"
1(
1.
11
17
b1001011 <
#1925000000
0"
0(
0.
01
07
#1937500000
1"
1(
1.
11
17
b1001100 <
#1950000000
0"
0(
0.
01
07
#1962500000
1"
1(
1.
11
17
b1001101 <
#1975000000
0"
0(
0.
01
07
#1987500000
1"
1(
1.
11
17
b1001110 <
#2000000000
0"
0(
0.
01
07
#2012500000
1"
1(
1.
11
17
b1001111 <
#2025000000
0"
0(
0.
01
07
#2037500000
1"
1(
1.
11
17
b1010000 <
#2050000000
0"
0(
0.
01
07
#2062500000
1"
1(
1.
11
17
b1010001 <
#2075000000
0"
0(
0.
01
07
#2087500000
1"
1(
1.
11
17
b1010010 <
#2100000000
0"
0(
0.
01
07
#2112500000
1"
1(
1.
11
17
b1010011 <
#2125000000
0"
0(
0.
01
07
#2137500000
1"
1(
1.
11
17
b1010100 <
#2150000000
0"
0(
0.
01
07
#2162500000
1"
1(
1.
11
17
b1010101 <
#2175000000
0"
0(
0.
01
07
#2187500000
1"
1(
1.
11
17
b1010110 <
#2200000000
0"
0(
0.
01
07
#2212500000
1"
1(
1.
11
17
b1010111 <
#2225000000
0"
0(
0.
01
07
#2237500000
1"
1(
1.
11
17
b1011000 <
#2250000000
0"
0(
0.
01
07
#2262500000
1"
1(
1.
11
17
b1011001 <
#2275000000
0"
0(
0.
01
07
#2287500000
1"
1(
1.
11
17
b1011010 <
#2300000000
0"
0(
0.
01
07
#2312500000
1"
1(
1.
11
17
b1011011 <
#2325000000
0"
0(
0.
01
07
#2337500000
1"
1(
1.
11
17
b1011100 <
#2350000000
0"
0(
0.
01
07
#2362500000
1"
1(
1.
11
17
b1011101 <
#2375000000
0"
0(
0.
01
07
#2387500000
1"
1(
1.
11
17
b1011110 <
#2400000000
0"
0(
0.
01
07
#2412500000
1"
1(
1.
11
17
b1011111 <
#2425000000
0"
0(
0.
01
07
#2437500000
1"
1(
1.
11
17
b1100000 <
#2450000000
0"
0(
0.
01
07
#2462500000
1"
1(
1.
11
17
b1100001 <
#2475000000
0"
0(
0.
01
07
#2487500000
1"
1(
1.
11
17
b1100010 <
#2500000000
0"
0(
0.
01
07
#2512500000
1"
1(
1.
11
17
b1100011 <
#2525000000
0"
0(
0.
01
07
#2537500000
1"
1(
1.
11
17
b1100100 <
#2550000000
0"
0(
0.
01
07
#2562500000
1"
1(
1.
11
17
b1100101 <
#2575000000
0"
0(
0.
01
07
#2587500000
1"
1(
1.
11
17
b1100110 <
#2600000000
0"
0(
0.
01
07
#2612500000
1"
1(
1.
11
17
b1100111 <
#2625000000
0"
0(
0.
01
07
#2637500000
1"
1(
1.
11
17
b1101000 <
#2650000000
0"
0(
0.
01
07
#2662500000
1"
1(
1.
11
17
b1101001 <
#2675000000
0"
0(
0.
01
07
#2687500000
1"
1(
1.
11
17
b1101010 <
#2700000000
0"
0(
0.
01
07
#2712500000
1"
1(
1.
11
17
b1101011 <
#2725000000
0"
0(
0.
01
07
#2737500000
1"
1(
1.
11
17
b1101100 <
#2750000000
0"
0(
0.
01
07
#2762500000
1"
1(
1.
11
17
b1101101 <
#2775000000
0"
0(
0.
01
07
#2787500000
1"
1(
1.
11
17
b1101110 <
#2800000000
0"
0(
0.
01
07
#2812500000
1"
1(
1.
11
17
b1101111 <
#2825000000
0"
0(
0.
01
07
#2837500000
1"
1(
1.
11
17
b1110000 <
#2850000000
0"
0(
0.
01
07
#2862500000
1"
1(
1.
11
17
b1110001 <
#2875000000
0"
0(
0.
01
07
#2887500000
1"
1(
1.
11
17
b1110010 <
#2900000000
0"
0(
0.
01
07
#2912500000
1"
1(
1.
11
17
b1110011 <
#2925000000
0"
0(
0.
01
07
#2937500000
1"
1(
1.
11
17
b1110100 <
#2950000000
0"
0(
0.
01
07
#2962500000
1"
1(
1.
11
17
b1110101 <
#2975000000
0"
0(
0.
01
07
#2987500000
1"
1(
1.
11
17
b1110110 <
#3000000000
0"
0(
0.
01
07
#3012500000
1"
1(
1.
11
17
b1110111 <
#3025000000
0"
0(
0.
01
07
#3037500000
1"
1(
1.
11
17
b1111000 <
#3050000000
0"
0(
0.
01
07
#3062500000
1"
b0000000000000001 '
1(
1.
11
17
b0 <
#3075000000
0"
0(
0.
01
07
#3087500000
1"
0#
b0000000000000001 %
b1010101111001101 &
b0000000000000000 '
1(
1.
0/
11
17
b0001 ;
#3100000000
0"
0(
0.
01
07
#3112500000
1"
1#
1$
1(
1.
1/
10
11
17
#3125000000
0"
0(
0.
01
07
#3137500000
1"
0#
0$
b0000000000000000 %
b0000000000000001 &
b0000000000000001 '
1(
1.
0/
00
11
b1010101111001101 6
17
b0000 ;
#3150000000
0"
0(
0.
01
07
#3162500000
1"
1#
1$
1(
1.
1/
10
11
17
#3175000000
0"
0(
0.
01
07
#3187500000
1"
0#
0$
1(
1.
0/
00
11
17
1?
#3200000000
0"
0(
0.
01
07
#3212500000
1"
1#
b0000000000000010 '
1(
0,
1.
1/
11
05
17
0:
#3225000000
0"
0(
0.
01
07
#3237500000
1"
1(
1.
11
17
b1 <
0?
#3250000000
0"
0(
0.
01
07
#3262500000
1"
1(
1.
11
17
b10 <
#3275000000
0"
0(
0.
01
07
#3287500000
1"
1(
1.
11
17
b11 <
#3300000000
0"
0(
0.
01
07
#3312500000
1"
1(
1.
11
17
b100 <
#3325000000
0"
0(
0.
01
07
#3337500000
1"
1(
1.
11
17
b101 <
#3350000000
0"
0(
0.
01
07
#3362500000
1"
1(
1.
11
17
b110 <
#3375000000
0"
0(
0.
01
07
#3387500000
1"
1(
1.
11
17
b111 <
#3400000000
0"
0(
0.
01
07
#3412500000
1"
1(
1.
11
17
b1000 <
#3425000000
0"
0(
0.
01
07
#3437500000
1"
1(
1.
11
17
b1001 <
#3450000000
0"
0(
0.
01
07
#3462500000
1"
1(
1.
11
17
b1010 <
#3475000000
0"
0(
0.
01
07
#3487500000
1"
1(
1.
11
17
b1011 <
#3500000000
0"
0(
0.
01
07
#3512500000
1"
1(
1.
11
17
b1100 <
#3525000000
0"
0(
0.
01
07
#3537500000
1"
1(
1.
11
17
b1101 <
#3550000000
0"
0(
0.
01
07
#3562500000
1"
1(
1.
11
17
b1110 <
#3575000000
0"
0(
0.
01
07
#3587500000
1"
1(
1.
11
17
b1111 <
#3600000000
0"
0(
0.
01
07
#3612500000
1"
1(
1.
11
17
b10000 <
#3625000000
0"
0(
0.
01
07
#3637500000
1"
1(
1.
11
17
b10001 <
#3650000000
0"
0(
0.
01
07
#3662500000
1"
1(
1.
11
17
b10010 <
#3675000000
0"
0(
0.
01
07
#3687500000
1"
1(
1.
11
17
b10011 <
#3700000000
0"
0(
0.
01
07
#3712500000
1"
1(
1.
11
17
b10100 <
#3725000000
0"
0(
0.
01
07
#3737500000
1"
1(
1.
11
17
b10101 <
#3750000000
0"
0(
0.
01
07
#3762500000
1"
1(
1.
11
17
b10110 <
#3775000000
0"
0(
0.
01
07
#3787500000
1"
1(
1.
11
17
b10111 <
#3800000000
0"
0(
0.
01
07
#3812500000
1"
1(
1.
11
17
b11000 <
#3825000000
0"
0(
0.
01
07
#3837500000
1"
1(
1.
11
17
b11001 <
#3850000000
0"
0(
0.
01
07
#3862500000
1"
1(
1.
11
17
b11010 <
#3875000000
0"
0(
0.
01
07
#3887500000
1"
1(
1.
11
17
b11011 <
#3900000000
0"
0(
0.
01
07
#3912500000
1"
1(
1.
11
17
b11100 <
#3925000000
0"
0(
0.
01
07
#3937500000
1"
1(
1.
11
17
b11101 <
#3950000000
0"
0(
0.
01
07
#3962500000
1"
1(
1.
11
17
b11110 <
#3975000000
0"
0(
0.
01
07
#3987500000
1"
1(
1.
11
17
b11111 <
#4000000000
0"
0(
0.
01
07
#4012500000
1"
1(
1.
11
17
b100000 <
#4025000000
0"
0(
0.
01
07
#4037500000
1"
1(
1.
11
17
b100001 <
#4050000000
0"
0(
0.
01
07
#4062500000
1"
1(
1.
11
17
b100010 <
#4075000000
0"
0(
0.
01
07
#4087500000
1"
1(
1.
11
17
b100011 <
#4100000000
0"
0(
0.
01
07
#4112500000
1"
1(
1.
11
17
b100100 <
#4125000000
0"
0(
0.
01
07
#4137500000
1"
1(
1.
11
17
b100101 <
#4150000000
0"
0(
0.
01
07
#4162500000
1"
1(
1.
11
17
b100110 <
#4175000000
0"
0(
0.
01
07
#4187500000
1"
1(
1.
11
17
b100111 <
#4200000000
0"
0(
0.
01
07
#4212500000
1"
1(
1.
11
17
b101000 <
#4225000000
0"
0(
0.
01
07
#4237500000
1"
b0000000000000011 '
1(
1,
1.
11
15
17
1:
b0 <
#4250000000
0"
0(
0.
01
07
#4262500000
1"
1(
1.
11
17
b1 <
#4275000000
0"
0(
0.
01
07
#4287500000
1"
1(
1.
11
17
b10 <
#4300000000
0"
0(
0.
01
07
#4312500000
1"
1(
1.
11
17
b11 <
#4325000000
0"
0(
0.
01
07
#4337500000
1"
1(
1.
11
17
b100 <
#4350000000
0"
0(
0.
01
07
#4362500000
1"
1(
1.
11
17
b101 <
#4375000000
0"
0(
0.
01
07
#4387500000
1"
1(
1.
11
17
b110 <
#4400000000
0"
0(
0.
01
07
#4412500000
1"
1(
1.
11
17
b111 <
#4425000000
0"
0(
0.
01
07
#4437500000
1"
1(
1.
11
17
b1000 <
#4450000000
0"
0(
0.
01
07
#4462500000
1"
1(
1.
11
17
b1001 <
#4475000000
0"
0(
0.
01
07
#4487500000
1"
1(
1.
11
17
b1010 <
#4500000000
0"
0(
0.
01
07
#4512500000
1"
1(
1.
11
17
b1011 <
#4525000000
0"
0(
0.
01
07
#4537500000
1"
1(
1.
11
17
b1100 <
#4550000000
0"
0(
0.
01
07
#4562500000
1"
1(
1.
11
17
b1101 <
#4575000000
0"
0(
0.
01
07
#4587500000
1"
1(
1.
11
17
b1110 <
#4600000000
0"
0(
0.
01
07
#4612500000
1"
1(
1.
11
17
b1111 <
#4625000000
0"
0(
0.
01
07
#4637500000
1"
1(
1.
11
17
b10000 <
#4650000000
0"
0(
0.
01
07
#4662500000
1"
1(
1.
11
17
b10001 <
#4675000000
0"
0(
0.
01
07
#4687500000
1"
1(
1.
11
17
b10010 <
#4700000000
0"
0(
0.
01
07
#4712500000
1"
1(
1.
11
17
b10011 <
#4725000000
0"
0(
0.
01
07
#4737500000
1"
1(
1.
11
17
b10100 <
#4750000000
0"
0(
0.
01
07
#4762500000
1"
1(
1.
11
17
b10101 <
#4775000000
0"
0(
0.
01
07
#4787500000
1"
1(
1.
11
17
b10110 <
#4800000000
0"
0(
0.
01
07
#4812500000
1"
1(
1.
11
17
b10111 <
#4825000000
0"
0(
0.
01
07
#4837500000
1"
1(
1.
11
17
b11000 <
#4850000000
0"
0(
0.
01
07
#4862500000
1"
1(
1.
11
17
b11001 <
#4875000000
0"
0(
0.
01
07
#4887500000
1"
1(
1.
11
17
b11010 <
#4900000000
0"
0(
0.
01
07
#4912500000
1"
1(
1.
11
17
b11011 <
#4925000000
0"
0(
0.
01
07
#4937500000
1"
1(
1.
11
17
b11100 <
#4950000000
0"
0(
0.
01
07
#4962500000
1"
1(
1.
11
17
b11101 <
#4975000000
0"
0(
0.
01
07
#4987500000
1"
1(
1.
11
17
b11110 <
#5000000000
0"
0(
0.
01
07
#5012500000
1"
1(
1.
11
17
b11111 <
#5025000000
0"
0(
0.
01
07
#5037500000
1"
1(
1.
11
17
b100000 <
#5050000000
0"
0(
0.
01
07
#5062500000
1"
1(
1.
11
17
b100001 <
#5075000000
0"
0(
0.
01
07
#5087500000
1"
1(
1.
11
17
b100010 <
#5100000000
0"
0(
0.
01
07
#5112500000
1"
1(
1.
11
17
b100011 <
#5125000000
0"
0(
0.
01
07
#5137500000
1"
1(
1.
11
17
b100100 <
#5150000000
0"
0(
0.
01
07
#5162500000
1"
1(
1.
11
17
b100101 <
#5175000000
0"
0(
0.
01
07
#5187500000
1"
1(
1.
11
17
b100110 <
#5200000000
0"
0(
0.
01
07
#5212500000
1"
1(
1.
11
17
b100111 <
#5225000000
0"
0(
0.
01
07
#5237500000
1"
1(
1.
11
17
b101000 <
#5250000000
0"
0(
0.
01
07
#5262500000
1"
1(
1.
11
17
b101001 <
#5275000000
0"
0(
0.
01
07
#5287500000
1"
1(
1.
11
17
b101010 <
#5300000000
0"
0(
0.
01
07
#5312500000
1"
1(
1.
11
17
b101011 <
#5325000000
0"
0(
0.
01
07
#5337500000
1"
1(
1.
11
17
b101100 <
#5350000000
0"
0(
0.
01
07
#5362500000
1"
1(
1.
11
17
b101101 <
#5375000000
0"
0(
0.
01
07
#5387500000
1"
1(
1.
11
17
b101110 <
#5400000000
0"
0(
0.
01
07
#5412500000
1"
1(
1.
11
17
b101111 <
#5425000000
0"
0(
0.
01
07
#5437500000
1"
1(
1.
11
17
b110000 <
#5450000000
0"
0(
0.
01
07
#5462500000
1"
1(
1.
11
17
b110001 <
#5475000000
0"
0(
0.
01
07
#5487500000
1"
1(
1.
11
17
b110010 <
#5500000000
0"
0(
0.
01
07
#5512500000
1"
1(
1.
11
17
b110011 <
#5525000000
0"
0(
0.
01
07
#5537500000
1"
1(
1.
11
17
b110100 <
#5550000000
0"
0(
0.
01
07
#5562500000
1"
1(
1.
11
17
b110101 <
#5575000000
0"
0(
0.
01
07
#5587500000
1"
1(
1.
11
17
b110110 <
#5600000000
0"
0(
0.
01
07
#5612500000
1"
1(
1.
11
17
b110111 <
#5625000000
0"
0(
0.
01
07
#5637500000
1"
1(
1.
11
17
b111000 <
#5650000000
0"
0(
0.
01
07
#5662500000
1"
1(
1.
11
17
b111001 <
#5675000000
0"
0(
0.
01
07
#5687500000
1"
1(
1.
11
17
b111010 <
#5700000000
0"
0(
0.
01
07
#5712500000
1"
1(
1.
11
17
b111011 <
#5725000000
0"
0(
0.
01
07
#5737500000
1"
1(
1.
11
17
b111100 <
#5750000000
0"
0(
0.
01
07
#5762500000
1"
1(
1.
11
17
b111101 <
#5775000000
0"
0(
0.
01
07
#5787500000
1"
1(
1.
11
17
b111110 <
#5800000000
0"
0(
0.
01
07
#5812500000
1"
1(
1.
11
17
b111111 <
#5825000000
0"
0(
0.
01
07
#5837500000
1"
1(
1.
11
17
b1000000 <
#5850000000
0"
0(
0.
01
07
#5862500000
1"
1(
1.
11
17
b1000001 <
#5875000000
0"
0(
0.
01
07
#5887500000
1"
1(
1.
11
17
b1000010 <
#5900000000
0"
0(
0.
01
07
#5912500000
1"
1(
1.
11
17
b1000011 <
#5925000000
0"
0(
0.
01
07
#5937500000
1"
1(
1.
11
17
b1000100 <
#5950000000
0"
0(
0.
01
07
#5962500000
1"
1(
1.
11
17
b1000101 <
#5975000000
0"
0(
0.
01
07
#5987500000
1"
1(
1.
11
17
b1000110 <
#6000000000
0"
0(
0.
01
07
#6012500000
1"
1(
1.
11
17
b1000111 <
#6025000000
0"
0(
0.
01
07
#6037500000
1"
1(
1.
11
17
b1001000 <
#6050000000
0"
0(
0.
01
07
#6062500000
1"
1(
1.
11
17
b1001001 <
#6075000000
0"
0(
0.
01
07
#6087500000
1"
1(
1.
11
17
b1001010 <
#6100000000
0"
0(
0.
01
07
#6112500000
1"
1(
1.
11
17
b1001011 <
#6125000000
0"
0(
0.
01
07
#6137500000
1"
1(
1.
11
17
b1001100 <
#6150000000
0"
0(
0.
01
07
#6162500000
1"
1(
1.
11
17
b1001101 <
#6175000000
0"
0(
0.
01
07
#6187500000
1"
1(
1.
11
17
b1001110 <
#6200000000
0"
0(
0.
01
07
#6212500000
1"
1(
1.
11
17
b1001111 <
#6225000000
0"
0(
0.
01
07
#6237500000
1"
1(
1.
11
17
b1010000 <
#6250000000
0"
0(
0.
01
07
#6262500000
1"
b0000000000000100 '
1(
1.
11
17
b0 <
#6275000000
0"
0(
0.
01
07
#6287500000
1"
b0000000000000101 '
1(
1*
1.
11
13
17
b10000 =
b1010101111001101 >
#6300000000
0"
0(
0.
01
07
#6312500000
1"
1(
1.
11
17
#6325000000
0"
0(
0.
01
07
#6337500000
1"
1(
1+
1.
11
14
17
19
#6350000000
0"
0(
0.
01
07
#6362500000
1"
1(
1.
11
17
1@
#6375000000
0"
0(
0.
01
07
#6387500000
1"
1(
0+
1.
11
04
17
09
#6400000000
0"
0(
0.
01
07
#6412500000
1"
1(
0*
1.
11
03
17
b1111 =
b0101011110011010 >
0@
#6425000000
0"
0(
0.
01
07
#6437500000
1"
1(
1+
1.
11
14
17
19
#6450000000
0"
0(
0.
01
07
#6462500000
1"
1(
1.
11
17
1@
#6475000000
0"
0(
0.
01
07
#6487500000
1"
1(
0+
1.
11
04
17
09
#6500000000
0"
0(
0.
01
07
#6512500000
1"
1(
1*
1.
11
13
17
b1110 =
b1010111100110100 >
0@
#6525000000
0"
0(
0.
01
07
#6537500000
1"
1(
1+
1.
11
14
17
19
#6550000000
0"
0(
0.
01
07
#6562500000
1"
1(
1.
11
17
1@
#6575000000
0"
0(
0.
01
07
#6587500000
1"
1(
0+
1.
11
04
17
09
#6600000000
0"
0(
0.
01
07
#6612500000
1"
1(
0*
1.
11
03
17
b1101 =
b0101111001101000 >
0@
#6625000000
0"
0(
0.
01
07
#6637500000
1"
1(
1+
1.
11
14
17
19
#6650000000
0"
0(
0.
01
07
#6662500000
1"
1(
1.
11
17
1@
#6675000000
0"
0(
0.
01
07
#6687500000
1"
1(
0+
1.
11
04
17
09
#6700000000
0"
0(
0.
01
07
#6712500000
1"
1(
1*
1.
11
13
17
b1100 =
b1011110011010000 >
0@
#6725000000
0"
0(
0.
01
07
#6737500000
1"
1(
1+
1.
11
14
17
19
#6750000000
0"
0(
0.
01
07
#6762500000
1"
1(
1.
11
17
1@
#6775000000
0"
0(
0.
01
07
#6787500000
1"
1(
0+
1.
11
04
17
09
#6800000000
0"
0(
0.
01
07
#6812500000
1"
1(
0*
1.
11
03
17
b1011 =
b0111100110100000 >
0@
#6825000000
0"
0(
0.
01
07
#6837500000
1"
1(
1+
1.
11
14
17
19
#6850000000
0"
0(
0.
01
07
#6862500000
1"
1(
1.
11
17
1@
#6875000000
0"
0(
0.
01
07
#6887500000
1"
1(
0+
1.
11
04
17
09
#6900000000
0"
0(
0.
01
07
#6912500000
1"
1(
1*
1.
11
13
17
b1010 =
b1111001101000000 >
0@
#6925000000
0"
0(
0.
01
07
#6937500000
1"
1(
1+
1.
11
14
17
19
#6950000000
0"
0(
0.
01
07
#6962500000
1"
1(
1.
11
17
1@
#6975000000
0"
0(
0.
01
07
#6987500000
1"
1(
0+
1.
11
04
17
09
#7000000000
0"
0(
0.
01
07
#7012500000
1"
1(
1.
11
17
b1001 =
b1110011010000000 >
0@
#7025000000
0"
0(
0.
01
07
#7037500000
1"
1(
1+
1.
11
14
17
19
#7050000000
0"
0(
0.
01
07
#7062500000
1"
1(
1.
11
17
1@
#7075000000
0"
0(
0.
01
07
#7087500000
1"
1(
0+
1.
11
04
17
09
#7100000000
0"
0(
0.
01
07
#7112500000
1"
1(
1.
11
17
b1000 =
b1100110100000000 >
0@
#7125000000
0"
0(
0.
01
07
#7137500000
1"
1(
1+
1.
11
14
17
19
#7150000000
0"
0(
0.
01
07
#7162500000
1"
1(
1.
11
17
1@
#7175000000
0"
0(
0.
01
07
#7187500000
1"
1(
0+
1.
11
04
17
09
#7200000000
0"
0(
0.
01
07
#7212500000
1"
1(
1.
11
17
b111 =
b1001101000000000 >
0@
#7225000000
0"
0(
0.
01
07
#7237500000
1"
1(
1+
1.
11
14
17
19
#7250000000
0"
0(
0.
01
07
#7262500000
1"
1(
1.
11
17
1@
#7275000000
0"
0(
0.
01
07
#7287500000
1"
1(
0+
1.
11
04
17
09
#7300000000
0"
0(
0.
01
07
#7312500000
1"
1(
0*
1.
11
03
17
b110 =
b0011010000000000 >
0@
#7325000000
0"
0(
0.
01
07
#7337500000
1"
1(
1+
1.
11
14
17
19
#7350000000
0"
0(
0.
01
07
#7362500000
1"
1(
1.
11
17
1@
#7375000000
0"
0(
0.
01
07
#7387500000
1"
1(
0+
1.
11
04
17
09
#7400000000
0"
0(
0.
01
07
#7412500000
1"
1(
1.
11
17
b101 =
b0110100000000000 >
0@
#7425000000
0"
0(
0.
01
07
#7437500000
1"
1(
1+
1.
11
14
17
19
#7450000000
0"
0(
0.
01
07
#7462500000
1"
1(
1.
11
17
1@
#7475000000
0"
0(
0.
01
07
#7487500000
1"
1(
0+
1.
11
04
17
09
#7500000000
0"
0(
0.
01
07
#7512500000
1"
1(
1*
1.
11
13
17
b100 =
b1101000000000000 >
0@
#7525000000
0"
0(
0.
01
07
#7537500000
1"
1(
1+
1.
11
14
17
19
#7550000000
0"
0(
0.
01
07
#7562500000
1"
1(
1.
11
17
1@
#7575000000
0"
0(
0.
01
07
#7587500000
1"
1(
0+
1.
11
04
17
09
#7600000000
0"
0(
0.
01
07
#7612500000
1"
1(
1.
11
17
b11 =
b1010000000000000 >
0@
#7625000000
0"
0(
0.
01
07
#7637500000
1"
1(
1+
1.
11
14
17
19
#7650000000
0"
0(
0.
01
07
#7662500000
1"
1(
1.
11
17
1@
#7675000000
0"
0(
0.
01
07
#7687500000
1"
1(
0+
1.
11
04
17
09
#7700000000
0"
0(
0.
01
07
